simulation/pipeline.vcd
$date
	Sun Jul 12 00:26:32 2020
$end
$version
	Icarus Verilog
$end
$timescale
	1s
$end
$scope module testbench $end
$scope module pipe $end
$var wire 1 ! clk $end
$var wire 32 " dmem_read_data [31:0] $end
$var wire 32 # dmem_read_data_temp [31:0] $end
$var wire 1 $ dmem_read_ready $end
$var wire 1 % dmem_read_valid $end
$var wire 1 & dmem_read_valid_checker $end
$var wire 4 ' dmem_write_byte [3:0] $end
$var wire 32 ( dmem_write_data [31:0] $end
$var wire 1 ) dmem_write_ready $end
$var wire 1 * dmem_write_valid $end
$var wire 32 + inst_mem_address [31:0] $end
$var wire 1 , inst_mem_is_valid $end
$var wire 32 - inst_mem_read_data [31:0] $end
$var wire 1 . reset $end
$var wire 1 / stall $end
$var wire 32 0 write_address [31:0] $end
$var wire 1 1 wb_stall $end
$var wire 33 2 result_subu [32:0] $end
$var wire 33 3 result_subs [32:0] $end
$var wire 32 4 reg_rdata2 [31:0] $end
$var wire 32 5 reg_rdata1 [31:0] $end
$var wire 32 6 instruction [31:0] $end
$var wire 1 7 inst_mem_is_ready $end
$var wire 1 8 exception $end
$var wire 32 9 dmem_write_address [31:0] $end
$var wire 32 : dmem_read_address [31:0] $end
$var wire 1 ; branch_stall $end
$var wire 32 < alu_operand2 [31:0] $end
$var wire 32 = alu_operand1 [31:0] $end
$var reg 1 > alu $end
$var reg 3 ? alu_operation [2:0] $end
$var reg 1 @ arithsubtype $end
$var reg 1 A branch $end
$var reg 1 B branch_taken $end
$var reg 5 C dest_reg_sel [4:0] $end
$var reg 32 D execute_immediate [31:0] $end
$var reg 32 E fetch_pc [31:0] $end
$var reg 1 F illegal_inst $end
$var reg 32 G immediate [31:0] $end
$var reg 1 H immediate_sel $end
$var reg 32 I inst_fetch_pc [31:0] $end
$var reg 1 J jal $end
$var reg 1 K jalr $end
$var reg 1 L lui $end
$var reg 1 M mem_to_reg $end
$var reg 1 N mem_write $end
$var reg 32 O next_pc [31:0] $end
$var reg 32 P pc [31:0] $end
$var reg 32 Q result [31:0] $end
$var reg 5 R src1_select [4:0] $end
$var reg 5 S src2_select [4:0] $end
$var reg 1 T stall_read $end
$var reg 3 U wb_alu_operation [2:0] $end
$var reg 1 V wb_alu_to_reg $end
$var reg 1 W wb_branch $end
$var reg 1 X wb_branch_nxt $end
$var reg 5 Y wb_dest_reg_sel [4:0] $end
$var reg 1 Z wb_mem_to_reg $end
$var reg 1 [ wb_mem_write $end
$var reg 2 \ wb_read_address [1:0] $end
$var reg 32 ] wb_read_data [31:0] $end
$var reg 32 ^ wb_result [31:0] $end
$var reg 1 _ wb_stall_first $end
$var reg 1 ` wb_stall_second $end
$var reg 32 a wb_write_address [31:0] $end
$var reg 4 b wb_write_byte [3:0] $end
$var reg 32 c wb_write_data [31:0] $end
$scope module IF_ID $end
$var wire 1 ! clk $end
$var wire 1 , inst_mem_is_valid $end
$var wire 32 d inst_mem_read_data [31:0] $end
$var wire 1 . reset $end
$var wire 1 / stall $end
$var reg 1 8 exception $end
$var integer 32 e i [31:0] $end
$upscope $end
$scope module execute $end
$var wire 1 ! clk $end
$var wire 1 . reset $end
$upscope $end
$scope module wb $end
$var wire 1 ! clk $end
$var wire 1 . reset $end
$upscope $end
$upscope $end
$upscope $end
$enddefinitions $end
#0
$dumpvars
b100000 e
bx d
b0 c
b0 b
b0 a
0`
0_
b0 ^
bx ]
b0 \
0[
0Z
b0 Y
0X
0W
0V
b0 U
1T
b0 S
b0 R
bx Q
b0 P
b100 O
0N
0M
xL
0K
0J
b0 I
0H
b0 G
0F
b0 E
b0 D
b0 C
0B
0A
0@
b0 ?
0>
b0 =
b0 <
0;
b0 :
b0 9
08
07
b10011 6
b0 5
b0 4
b0 3
b0 2
01
b0 0
1/
0.
bx -
1,
b0 +
1*
0)
b0 (
b0 '
1&
1%
0$
bx #
bx "
1!
$end
#10
0!
#20
b11111110000000010000000100010011 -
b11111110000000010000000100010011 d
b100000 e
1!
#30
0!
#40
b100000 e
1!
#50
0!
#60
b100000 e
1!
#70
0!
#80
b100000 e
1!
#90
0!
#100
b100000 e
1!
#110
0!
#120
b100000 e
1!
#130
0!
#140
b100000 e
1!
#150
0!
#160
b100000 e
1!
#170
0!
#180
1.
b100000 e
1!
#190
0!
#200
1!
#210
0!
#220
1!
#230
0!
#240
1!
#250
0!
#260
1!
#270
0!
#280
1!
#290
0!
#300
1!
#310
0!
#320
1!
#330
0!
#340
1!
#350
0!
#360
1!
#370
0!
#380
0/
1!
#390
0!
#400
b11111111111111111111111111100000 G
b11111110000000010000000100010011 6
17
0T
1!
#410
0!
#420
b111111111111 =
b111111111111 5
b1000000011111 3
b100000000000000000001000000011111 2
b11111111111111111111111111100000 <
b111111011111 Q
0B
b1000 O
xV
bx ^
b100 +
b100 E
b10 C
b10 R
0L
1>
1H
b111111011111 :
b111111011111 0
b11111111111111111111111111100000 D
1!
#430
0!
#440
b111110111111 Q
b111111111111 3
b100000000000000000000111111111111 2
b111110111111 0
b111110111111 :
b111111011111 =
b111111011111 5
b11100 G
b100000010010111000100011 6
0B
b1100 O
b100000010010111000100011 -
b100000010010111000100011 d
b1000 +
b1000 E
b11 \
b10 Y
1V
b111111011111 ^
b100 I
1!
#450
0!
#460
b111110111111 =
b111110111111 5
b100000 G
b10000000010000010000010011 6
b111110111111 3
b111110111111 2
b0 <
b0 Q
0B
b10000 O
b10000000010000010000010011 -
b10000000010000010000010011 d
b1000 I
b111110111111 ^
b1100 +
b1100 E
1N
b10 ?
b11100 C
b1000 S
b100 P
0>
0H
b111111011011 :
b111111011011 0
b11100 D
1!
#470
0!
#480
b1100100 G
b110010000000000011110010011 6
b111110011111 3
b111110011111 2
b100000 <
b111111011111 Q
0B
b10100 O
b110010000000000011110010011 -
b110010000000000011110010011 d
0N
b0 ?
b1000 C
b0 S
b1000 P
1>
1H
b111111011111 :
b111111011111 0
b100000 D
b10000 +
b10000 E
b10 U
b11100 Y
0V
1)
1[
b0 ^
b1100 I
b1111 '
b1111 b
b111111011011 9
b111111011011 a
1!
#490
0!
#500
b11111111111111111111111111101100 G
b1100100 Q
b11111110111101000010011000100011 6
b0 =
b0 5
b111111111111111111111111110011100 3
b111111111111111111111111110011100 2
b1100100 <
0B
b11000 O
b11111110111101000010011000100011 -
b11111110111101000010011000100011 d
b10000 I
b0 U
b1000 Y
1V
0)
0[
b111111011111 ^
b10100 +
b10100 E
b1111 C
b100 S
b0 R
b1100 P
b1100100 :
b1100100 0
b1100100 D
1!
#510
0!
#520
b1100100 4
b10 G
b1100100 Q
b1000000000011110010011 6
b111111011111 =
b111111011111 5
b111101111011 3
b111101111011 2
b1100100 <
0B
b11100 O
b1000000000011110010011 -
b1000000000011110010011 d
1N
1@
b10 ?
b1100 C
b1111 S
b1000 R
b10000 P
0>
0H
b111111001011 :
b111111001011 0
b11111111111111111111111111101100 D
b11000 +
b11000 E
b0 \
b1111 Y
b1100100 ^
b10100 I
1!
#530
0!
#540
b111110111111 4
b11111111111111111111111111101000 G
b11111110111101000010010000100011 6
b0 =
b0 5
b111111111111111111111111111111110 3
b111111111111111111111111111111110 2
b10 <
b10 Q
0B
b100000 O
b11111110111101000010010000100011 -
b11111110111101000010010000100011 d
b1100100 (
b1100100 c
b111111001011 9
b111111001011 a
b11000 I
b10 U
b11 \
b1100 Y
0V
1)
1[
b11100 +
b11100 E
0N
0@
b0 ?
b1111 C
b10 S
b0 R
b10100 P
1>
1H
b10 :
b10 0
b10 D
1!
#550
0!
#560
b11111111111111111111111111101000 G
b10 4
b10 Q
b11111110100001000010011110000011 6
b111111011111 =
b111111011111 5
b111111011101 3
b111111011101 2
b10 <
0B
b100100 O
b11111110100001000010011110000011 -
b11111110100001000010011110000011 d
1N
1@
b10 ?
b1000 C
b1111 S
b1000 R
b11000 P
0>
0H
b111111000111 :
b111111000111 0
b11111111111111111111111111101000 D
b100000 +
b100000 E
b0 U
b10 \
b1111 Y
1V
0)
0[
b10 ^
b11100 I
1!
#570
0!
#580
b111111011111 4
b11111111111111111111111111101100 G
b11111110110001000010011100000011 6
bx Q
0B
b101000 O
b111111110111 3
b100000000000000000000111111110111 2
b11111111111111111111111111101000 <
b11111110110001000010011100000011 -
b11111110110001000010011100000011 d
b10 (
b10 c
b111111000111 9
b111111000111 a
b100000 I
b10 U
b11 \
b1000 Y
0V
1)
1[
b100100 +
b100100 E
1$
1M
0N
b1111 C
b1000 S
b11100 P
1H
1!
#590
0!
#600
b0 G
b0 4
b10 ]
b111101110001011110110011 6
b111111110011 3
b100000000000000000000111111110011 2
b11111111111111111111111111101100 <
0B
b101100 O
b10 "
b10 #
b111101110001011110110011 -
b111101110001011110110011 d
b1110 C
b1100 S
b100000 P
b111111001011 :
b111111001011 0
b11111111111111111111111111101100 D
b101000 +
b101000 E
1Z
b1111 Y
1V
0)
0[
bx ^
b100100 I
1!
#610
0!
#620
b11111111111111111111111111100100 G
b10 4
b1100100 =
b1100100 5
b11111110111101000010001000100011 6
b1100100 ]
b1100010 3
b1100010 2
b10 <
b110010000 Q
0B
b110000 O
b11111110111101000010001000100011 -
b11111110111101000010001000100011 d
b1100100 "
b1100100 #
b101000 I
b1110 Y
b101100 +
b101100 E
0$
0M
0@
b1 ?
b1111 C
b1111 S
b1110 R
b100100 P
1>
0H
b1100100 :
b1100100 0
b0 D
1!
#630
0!
#640
b110010000 <
b111001001111 3
b111001001111 2
b111111011111 =
b111111011111 5
b110010000 4
b11111111111111111111111111100100 G
b11111110010001000010011110000011 6
b110010000 Q
0B
b110100 O
b11111110010001000010011110000011 -
b11111110010001000010011110000011 d
1N
1@
b10 ?
b100 C
b1000 R
b101000 P
0>
b111111000011 :
b111111000011 0
b11111111111111111111111111100100 D
b110000 +
b110000 E
b1 U
b0 \
0Z
b1111 Y
b110010000 ^
b101100 I
1!
#650
0!
#660
b0 4
b0 G
b1111000010100010011 6
bx Q
0B
b111000 O
b111111111011 3
b100000000000000000000111111111011 2
b11111111111111111111111111100100 <
b1111000010100010011 -
b1111000010100010011 d
b110010000 (
b110010000 c
b111111000011 9
b111111000011 a
b110000 I
b10 U
b11 \
b100 Y
0V
1)
1[
b110100 +
b110100 E
1$
1M
0N
b1111 C
b100 S
b101100 P
1H
1!
#670
0!
#680
b11100 G
b110010000 =
b110010000 5
b110010000 ]
b1110000010010010000000011 6
b110010000 3
b110010000 2
b0 <
b110010000 Q
0B
b111100 O
b110010000 "
b110010000 #
b1110000010010010000000011 -
b1110000010010010000000011 d
0$
0M
0@
b0 ?
b1010 C
b0 S
b1111 R
b110000 P
1>
b110010000 :
b110010000 0
b0 D
b111000 +
b111000 E
1Z
b1111 Y
1V
0)
0[
bx ^
b110100 I
1!
#690
0!
#700
b111110111111 =
b111110111111 5
b100000 G
b10000000010000000100010011 6
b11111111111111111111111110010000 ]
b111110100011 3
b111110100011 2
b11100 <
bx Q
0B
b1000000 O
b10000000010000000100010011 -
b10000000010000000100010011 d
b111000 I
b0 U
b0 \
0Z
b1010 Y
b110010000 ^
b111100 +
b111100 E
1$
1M
b10 ?
b1000 C
b11100 S
b10 R
b110100 P
0>
b111111011011 :
b111111011011 0
b11100 D
1!
#710
0!
#720
b0 G
b1000000001100111 6
b111110011111 3
b111110011111 2
b100000 <
b111111011111 Q
0B
b1000100 O
b0 ]
b0 "
b0 #
b1000000001100111 -
b1000000001100111 d
0$
0M
b0 ?
b10 C
b0 S
b111000 P
1>
b111111011111 :
b111111011111 0
b100000 D
b1000000 +
b1000000 E
b10 U
b11 \
1Z
b1000 Y
bx ^
b111100 I
1!
#730
0!
#740
1F
b0 =
b0 5
b0 6
b0 3
b0 2
b0 <
b1000000 Q
1B
b0 O
b0 -
b0 d
b1000000 I
b0 U
0Z
b10 Y
b111111011111 ^
b1000100 +
b1000100 E
b0 C
b1 R
b111100 P
1K
0>
b0 :
b0 0
b0 D
1!
#750
0!
#760
bx Q
0B
b100 O
1;
18
b0 R
b1000000 P
0K
0H
b0 +
b0 E
b0 \
1W
b0 Y
b1000000 ^
b1000100 I
1!
#770
0!
#780
b11111111111111111111111111100000 G
0F
b11111110000000010000000100010011 6
11
b1000 O
b11111110000000010000000100010011 -
b11111110000000010000000100010011 d
1_
b0 I
1X
0W
0V
bx ^
b100 +
b100 E
b1000100 P
1!
