simulation/pipeline.vcd
$date
	Mon Jul 06 23:17:21 2020
$end
$version
	Icarus Verilog
$end
$timescale
	1s
$end
$scope module testbench $end
$scope module pipeline $end
$var wire 32 ! alu_operand1 [31:0] $end
$var wire 1 " branch_stall $end
$var wire 1 # clk $end
$var wire 32 $ dmem_read_data [31:0] $end
$var wire 1 % dmem_read_ready $end
$var wire 1 & dmem_read_valid $end
$var wire 4 ' dmem_write_byte [3:0] $end
$var wire 32 ( dmem_write_data [31:0] $end
$var wire 1 ) dmem_write_ready $end
$var wire 1 * dmem_write_valid $end
$var wire 1 + execute_stall $end
$var wire 32 , inst_mem_address [31:0] $end
$var wire 1 - inst_mem_is_ready $end
$var wire 1 . inst_mem_is_valid $end
$var wire 32 / inst_mem_read_data [31:0] $end
$var wire 1 0 reset $end
$var wire 1 1 stall $end
$var wire 1 2 temp $end
$var wire 1 3 wb_nop_stall $end
$var wire 1 4 wb_stall $end
$var wire 32 5 write_address [31:0] $end
$var wire 33 6 result_subu [32:0] $end
$var wire 33 7 result_subs [32:0] $end
$var wire 32 8 reg_rdata2 [31:0] $end
$var wire 32 9 reg_rdata1 [31:0] $end
$var wire 32 : instruction [31:0] $end
$var wire 1 ; inst_fetch_stall $end
$var wire 32 < dmem_write_address [31:0] $end
$var wire 32 = dmem_read_address [31:0] $end
$var wire 32 > alu_operand2 [31:0] $end
$var reg 1 ? alu $end
$var reg 3 @ alu_operation [2:0] $end
$var reg 1 A arithsubtype $end
$var reg 1 B branch $end
$var reg 1 C branch_taken $end
$var reg 5 D dest_reg_sel [4:0] $end
$var reg 1 E exception $end
$var reg 32 F execute_immediate [31:0] $end
$var reg 32 G fetch_pc [31:0] $end
$var reg 1 H flush $end
$var reg 1 I illegal_inst $end
$var reg 32 J immediate [31:0] $end
$var reg 1 K immediate_sel $end
$var reg 32 L inst_fetch_pc [31:0] $end
$var reg 1 M jal $end
$var reg 1 N jalr $end
$var reg 1 O lui $end
$var reg 1 P mem_to_reg $end
$var reg 1 Q mem_write $end
$var reg 32 R next_pc [31:0] $end
$var reg 32 S pc [31:0] $end
$var reg 32 T result [31:0] $end
$var reg 5 U src1_select [4:0] $end
$var reg 5 V src2_select [4:0] $end
$var reg 1 W stall_read $end
$var reg 3 X wb_alu_operation [2:0] $end
$var reg 1 Y wb_alu_to_reg $end
$var reg 1 Z wb_branch $end
$var reg 1 [ wb_branch_nxt $end
$var reg 5 \ wb_dest_reg_sel [4:0] $end
$var reg 1 ] wb_mem_to_reg $end
$var reg 1 ^ wb_mem_write $end
$var reg 1 _ wb_nop $end
$var reg 1 ` wb_nop_more $end
$var reg 2 a wb_read_address [1:0] $end
$var reg 32 b wb_read_data [31:0] $end
$var reg 32 c wb_result [31:0] $end
$var reg 32 d wb_write_address [31:0] $end
$var reg 4 e wb_write_byte [3:0] $end
$var reg 32 f wb_write_data [31:0] $end
$var integer 32 g i [31:0] $end
$upscope $end
$upscope $end
$enddefinitions $end
#0
$dumpvars
b100000 g
b0 f
b0 e
b0 d
b0 c
bx b
b0 a
0`
0_
0^
0]
b0 \
0[
0Z
0Y
b0 X
1W
b0 V
b0 U
bx T
b0 S
b100 R
0Q
0P
xO
0N
0M
b0 L
0K
b0 J
0I
1H
b0 G
b0 F
0E
b0 D
0C
0B
0A
b0 @
0?
b0 >
b0 =
b0 <
0;
b10011 :
b0 9
b0 8
b0 7
b0 6
b0 5
04
03
02
11
00
bx /
1.
0-
b0 ,
0+
1*
0)
b0 (
b0 '
1&
0%
bx $
1#
0"
b0 !
$end
#10
0#
#20
b100000 g
1#
#30
0#
#40
b100000 g
1#
#50
0#
#60
b100000 g
1#
#70
0#
#80
b100000 g
1#
#90
0#
#100
b100000 g
1#
#110
0#
#120
b100000 g
1#
#130
0#
#140
b100000 g
1#
#150
0#
#160
b100000 g
1#
#170
0#
#180
10
b100000 g
1#
#190
0#
#200
1#
#210
0#
#220
1#
#230
0#
#240
1#
#250
0#
#260
1#
#270
0#
#280
1#
#290
0#
#300
1#
#310
0#
#320
1#
#330
0#
#340
1#
#350
0#
#360
1#
#370
0#
#380
01
1#
#390
0#
#400
1-
0W
1#
#410
0#
#420
x2
b11111111111111111111111111100000 J
0C
b1000 R
b0 T
b11111110000000010000000100010011 :
b11111110000000010000000100010011 /
xY
bx c
b100 ,
b100 G
0O
1?
1K
0H
1#
#430
0#
#440
b11100 J
b100000010010111000100011 :
02
b111111111111 !
b111111111111 9
b111111011111 T
b1000000011111 7
b100000000000000000001000000011111 6
b11111111111111111111111111100000 >
0C
b1100 R
b100000010010111000100011 /
b10 D
b10 U
b111111011111 =
b111111011111 5
b11111111111111111111111111100000 F
b1000 ,
b1000 G
1Y
b0 c
b100 L
1#
#450
0#
#460
b111111011111 !
b111111011111 9
b100000 J
b10000000010000010000010011 :
12
b0 T
0C
b10000 R
b111111011111 7
b111111011111 6
b0 >
b10000000010000010000010011 /
b1000 L
b11 a
b10 \
b111111011111 c
b1100 ,
b1100 G
1Q
b10 @
b11100 D
b1000 V
b100 S
0?
0K
b111111111011 =
b111111111011 5
b11100 F
1#
#470
0#
#480
b1100100 J
b110010000000000011110010011 :
b111110111111 7
b111110111111 6
b100000 >
b111111111111 T
0C
b10100 R
02
b110010000000000011110010011 /
0Q
b0 @
b1000 D
b0 V
b1000 S
1?
1K
b111111111111 =
b111111111111 5
b100000 F
b10000 ,
b10000 G
b10 X
b11100 \
0Y
1)
1^
b0 c
b1111 '
b1111 e
b111111111011 <
b111111111011 d
b1100 L
1#
#490
0#
#500
b11111111111111111111111111101100 J
b11111110111101000010011000100011 :
b0 !
b0 9
b1100100 T
0C
b11000 R
b111111111111111111111111110011100 7
b111111111111111111111111110011100 6
b1100100 >
b11111110111101000010011000100011 /
b10000 L
b0 X
b1000 \
1Y
0)
0^
b111111111111 c
b10100 ,
b10100 G
b1111 D
b100 V
b0 U
b1100 S
b1100100 =
b1100100 5
b1100100 F
1#
#510
0#
#520
b1100100 8
b10 J
b1000000000011110010011 :
b111111111111 !
b111111111111 9
b1100100 T
b111110011011 7
b111110011011 6
b1100100 >
0C
b11100 R
b1000000000011110010011 /
1Q
1A
b10 @
b1100 D
b1111 V
b1000 U
b10000 S
0?
0K
b111111101011 =
b111111101011 5
b11111111111111111111111111101100 F
b11000 ,
b11000 G
b0 a
b1111 \
b1100100 c
b10100 L
1#
#530
0#
#540
b111111011111 8
b11111111111111111111111111101000 J
b11111110111101000010010000100011 :
b0 !
b0 9
b111111111111111111111111111111110 7
b111111111111111111111111111111110 6
b10 >
b10 T
0C
b100000 R
b11111110111101000010010000100011 /
b11000 L
b1100100 (
b1100100 f
b111111101011 <
b111111101011 d
b10 X
b11 a
b1100 \
0Y
1)
1^
b11100 ,
b11100 G
0Q
0A
b0 @
b1111 D
b10 V
b0 U
b10100 S
1?
1K
b10 =
b10 5
b10 F
1#
#550
0#
#560
b11111111111111111111111111101100 J
b10 8
b11111110110001000010011100000011 :
b111111111111 !
b111111111111 9
b10 T
b111111111101 7
b111111111101 6
b10 >
0C
b100100 R
b11111110110001000010011100000011 /
1Q
1A
b10 @
b1000 D
b1111 V
b1000 U
b11000 S
0?
0K
b111111100111 =
b111111100111 5
b11111111111111111111111111101000 F
b100000 ,
b100000 G
b0 X
b10 a
b1111 \
1Y
0)
0^
b10 c
b11100 L
1#
#570
0#
#580
b0 8
b11111111111111111111111111101000 J
b11111110100001000010011110000011 :
b1000000010011 7
b100000000000000000001000000010011 6
b11111111111111111111111111101100 >
bx T
0C
b101000 R
b11111110100001000010011110000011 /
b100000 L
b10 (
b10 f
b111111100111 <
b111111100111 d
b10 X
b11 a
b1000 \
0Y
1)
1^
b100100 ,
b100100 G
1%
1P
0Q
b1110 D
b1100 V
b11100 S
1K
b111111101011 =
b111111101011 5
b11111111111111111111111111101100 F
1#
#590
0#
#600
b0 J
b111111111111 8
b1100100 b
b111101110000011110110011 :
b1000000010111 7
b100000000000000000001000000010111 6
b11111111111111111111111111101000 >
0C
b101100 R
b1100100 $
b111101110000011110110011 /
b1111 D
b1000 V
b100000 S
b111111100111 =
b111111100111 5
b11111111111111111111111111101000 F
b101000 ,
b101000 G
1]
b1110 \
1Y
0)
0^
bx c
b100100 L
1#
#610
0#
#620
b11111111111111111111111111100100 J
b10 8
b1100100 !
b1100100 9
b11111110111101000010001000100011 :
b10 b
b1100110 T
0C
b110000 R
b1100010 7
b1100010 6
b10 >
b11111110111101000010001000100011 /
b10 $
b101000 L
b1111 \
b101100 ,
b101100 G
0%
0P
0A
b0 @
b1111 V
b1110 U
b100100 S
1?
0K
b1100100 =
b1100100 5
b0 F
1#
#630
0#
#640
b1100110 >
b1100110 8
b11111111111111111111111111100100 J
b111110011001 7
b111110011001 6
b111111111111 !
b111111111111 9
b11111110010001000010011110000011 :
b1100110 T
0C
b110100 R
b11111110010001000010011110000011 /
1Q
1A
b10 @
b100 D
b1000 U
b101000 S
0?
b111111100011 =
b111111100011 5
b11111111111111111111111111100100 F
b110000 ,
b110000 G
b0 X
b0 a
0]
b1100110 c
b101100 L
1#
#650
0#
#660
b0 8
b0 J
b1111000010100010011 :
bx T
0C
b111000 R
b1000000011011 7
b100000000000000000001000000011011 6
b11111111111111111111111111100100 >
b1111000010100010011 /
b110000 L
b1100110 (
b1100110 f
b111111100011 <
b111111100011 d
b10 X
b11 a
b100 \
0Y
1)
1^
b110100 ,
b110100 G
1%
1P
0Q
b1111 D
b100 V
b101100 S
1K
1#
#670
0#
#680
b11100 J
b1100110 !
b1100110 9
b1100110 b
b1110000010010010000000011 :
12
b1100110 T
b1100110 7
b1100110 6
b0 >
0C
b111100 R
b1100110 $
b1110000010010010000000011 /
0%
0P
0A
b0 @
b1010 D
b0 V
b1111 U
b110000 S
1?
b1100110 =
b1100110 5
b0 F
b111000 ,
b111000 G
1]
b1111 \
1Y
0)
0^
bx c
b110100 L
1#
#690
0#
#700
b111111011111 !
b111111011111 9
b100000 J
b10000000010000000100010011 :
b0 b
02
bx T
0C
b1000000 R
b111111000011 7
b111111000011 6
b11100 >
b10000000010000000100010011 /
b111000 L
b0 X
b10 a
0]
b1010 \
b1100110 c
b111100 ,
b111100 G
1%
1P
b10 @
b1000 D
b11100 V
b10 U
b110100 S
0?
b111111111011 =
b111111111011 5
b11100 F
1#
#710
0#
#720
b0 J
b1000000001100111 :
b111111111111 T
b111110111111 7
b111110111111 6
b100000 >
0C
b1000100 R
b0 $
b1000000001100111 /
0%
0P
b0 @
b10 D
b0 V
b111000 S
1?
b111111111111 =
b111111111111 5
b100000 F
b1000000 ,
b1000000 G
b10 X
b11 a
1]
b1000 \
bx c
b111100 L
1#
#730
0#
#740
1I
b0 !
b0 9
b0 :
b1000000 T
1C
b0 R
b0 7
b0 6
b0 >
b0 /
b1000000 L
b0 X
0]
b10 \
b111111111111 c
b1000100 ,
b1000100 G
b0 D
b1 U
b111100 S
1N
0?
b0 =
b0 5
b0 F
1#
#750
0#
#760
12
bx T
0C
b100 R
1"
1E
b0 U
b1000000 S
0N
0K
b0 ,
b0 G
b0 a
1Z
b0 \
b1000000 c
b1000100 L
1#
#770
0#
#780
b11111111111111111111111111100000 J
0I
02
b11111110000000010000000100010011 :
13
b1000 R
b11111110000000010000000100010011 /
1_
b0 L
1[
0Z
0Y
bx c
b100 ,
b100 G
b1000100 S
1#
